<?xml version="1.0" encoding="UTF-8"?>
<svg version="1.1" viewBox="0 0 1000 194" xmlns="http://www.w3.org/2000/svg" xmlnsXlink="http://www.w3.org/1999/xlink">
<g transform="translate(-.60606 .27313)">
<svg width="1e3" height="194" data-background-color="#ffffff" viewBox="0 0 396 77" xmlns="http://www.w3.org/2000/svg" xmlnsXlink="http://www.w3.org/1999/xlink">
<g transform="translate(.24 -.10841)">
<svg width="395.52" height="77.217" viewBox="0 0 395.52 77.2168134308023">
<svg width="395.52" height="77.217" viewBox="0 0 504.8098030203569 98.55330799419237">
<g transform="translate(109.29 28.196)">
<svg width="395.52" height="42.161" viewBox="0 0 395.52 42.16074008397955">
<svg width="395.52" height="42.161" viewBox="0 0 395.52 42.16074008397955">
<svg width="395.52" height="22.739" viewBox="0 0 395.52 22.73948860994886">
<g>
<svg width="395.52" height="22.739" data-palette-color= "#000000" viewBox="-0.6500000357627869 -36.54999923706055 645.25 37.099998474121094">
<path class="undefined-text-0" d="m13.85-33.35-4.1 1.05 9.1 27h0.2l8.75-27-4.15-1.05v-2.65h12.7v2.65l-4.1 1.05-11 32.3h-5.9l-12-32.3-4-1.05v-2.65h14.5v2.65zm46.55 8.25v13.2h-3.55l-0.85-4.85h-7.35v13.25h14.2l1.45-7.65h3.9v11.15h-30.25v-2.65l4.7-1.05v-28.6l-4.7-1.05v-2.65h29.15v10.6h-3.6l-1.5-7.2h-13.35v12.35h7.35l0.85-4.85h3.55zm28.15-8.25-5.21 1.05v28.8h12.61l1.7-8.65h3.75v12.15h-28.75v-2.65l4.69-1.05v-28.6l-4.69-1.05v-2.65h15.9v2.65zm36.14 30.7 4.1-1.05-2.7-8.15h-12.6l-2.75 8.15 4.15 1.05v2.65h-12.7v-2.65l4.1-1.05 11.8-32.8h5.65l11.7 32.8 4 1.05v2.65h-14.75v-2.65zm-4.6-27.95h-0.2l-5.25 15.35h10.35l-4.9-15.35zm29.65-2.75-4.1 1.05 9.1 27h0.2l8.75-27-4.15-1.05v-2.65h12.7v2.65l-4.1 1.05-11 32.3h-5.9l-12-32.3-4-1.05v-2.65h14.5v2.65zm41 30.7 4.1-1.05-2.7-8.15h-12.6l-2.75 8.15 4.15 1.05v2.65h-12.7v-2.65l4.1-1.05 11.8-32.8h5.65l11.7 32.8 4 1.05v2.65h-14.75v-2.65zm-4.6-27.95h-0.2l-5.25 15.35h10.35l-4.9-15.35zm21.1 27.95 4.2-1.05v-28.6l-4.2-1.05v-2.65h10.9l17.35 26.8v-23.1l-4.2-1.05v-2.65h12.65v2.65l-4.2 1.05v32.3h-4.85l-19.2-29.1v25.4l4.2 1.05v2.65h-12.65v-2.65zm69.29-30.65q-2.1 0-3.82 0.78-1.73 0.77-2.83 2.32-1.4 1.95-2.3 4.95t-0.9 6.65q0 3.55 0.75 6.65t2.1 5.2q1.2 1.85 3.1 2.7t4.4 0.85q8.6 0 10.05-8.45h3.75q-2.35 12.15-14.7 12.15-6.9 0-11-4-2.45-2.4-3.75-6.05t-1.3-8.1q0-5.05 1.65-9.15t4.65-6.55q3.8-3.15 10.05-3.15 3.1 0 5.05 0.8t3.85 2.85l1-3.15h3.75v11.55h-4.05q-0.7-4.4-3.15-6.63-2.45-2.22-6.35-2.22zm52.1 14.9q0 4.2-1.23 8.05-1.22 3.85-3.77 6.5-2.1 2.2-5.05 3.27-2.95 1.08-7 1.08-4.1 0-7.05-1.05t-5-3.15q-2.2-2.3-3.5-5.93-1.3-3.62-1.3-7.97t1.32-8.18q1.33-3.82 3.68-6.37 2.1-2.25 5-3.3t6.95-1.05q3.95 0 6.95 1t5.15 3.2q2.55 2.55 3.7 6.2t1.15 7.7zm-27.15-0.15q0 3.95 0.72 7.02 0.73 3.08 1.98 5.03 1.25 1.85 3.1 2.8t4.55 0.95q4.9 0 7.35-3.3 1.3-1.8 2-4.73 0.7-2.92 0.7-6.92t-0.7-7-2.05-4.9q-1.3-1.9-3.23-2.8-1.92-0.9-4.37-0.9t-4.25 0.85-3 2.45q-2.8 3.7-2.8 11.45zm31.15 15.9 4.2-1.05v-28.6l-4.2-1.05v-2.65h10.9l17.35 26.8v-23.1l-4.2-1.05v-2.65h12.65v2.65l-4.2 1.05v32.3h-4.85l-19.2-29.1v25.4l4.2 1.05v2.65h-12.65v-2.65zm54.39 3.2q-2.9 0-5.02-0.85-2.13-0.85-3.68-2.6l-0.55 2.9h-3.8v-11.85h4.05q0.3 4.9 2.43 7.02 2.12 2.13 5.92 2.13 3.05 0 4.8-1.25t1.75-3.85q0-2.05-1.12-3.43-1.13-1.37-3.15-2.45-2.03-1.07-4.73-2.17-3.15-1.3-5.35-2.63-2.2-1.32-3.32-3.2-1.13-1.87-1.13-4.77 0-4.8 2.98-7.45 2.97-2.65 7.97-2.65 4.95 0 8.05 2.8l0.4-2.25h3.8v11.85h-3.85q0-4.75-1.77-6.98-1.78-2.22-5.48-2.22-6.05 0-6.05 5.65 0 1.7 0.65 2.77 0.65 1.08 2.28 1.98 1.62 0.9 4.42 2.15 4.2 1.85 6.73 3.5 2.52 1.65 3.62 3.5t1.1 4.35q0 3.25-1.57 5.5-1.58 2.25-4.28 3.37-2.7 1.13-6.1 1.13zm43.65-14v-18.85l-4.2-1.05v-2.65h12.55v2.65l-4.2 1.05v20.15q0 6.2-3.6 9.45t-10.55 3.25q-6.65 0-10.22-3.33-3.58-3.32-3.58-9.42v-20.1l-4.2-1.05v-2.65h14.4v2.65l-4.2 1.05v18.75q0 10.85 8.9 10.85 4.7 0 6.8-2.55t2.1-8.2zm27.45-19.9-5.2 1.05v28.8h12.6l1.7-8.65h3.75v12.15h-28.75v-2.65l4.7-1.05v-28.6l-4.7-1.05v-2.65h15.9v2.65zm11.7 8.35v-11h30.8v11h-3l-1.6-7.5h-7.8v28.65l5.3 1.2v2.65h-16.6v-2.65l5.3-1.2v-28.65h-7.85l-1.55 7.5h-3zm51.39 22.35 4.1-1.05-2.7-8.15h-12.6l-2.75 8.15 4.15 1.05v2.65h-12.7v-2.65l4.1-1.05 11.8-32.8h5.65l11.7 32.8 4 1.05v2.65h-14.75v-2.65zm-4.6-27.95h-0.2l-5.25 15.35h10.35l-4.9-15.35zm21.1 27.95 4.2-1.05v-28.6l-4.2-1.05v-2.65h10.9l17.35 26.8v-23.1l-4.2-1.05v-2.65h12.65v2.65l-4.2 1.05v32.3h-4.85l-19.2-29.1v25.4l4.2 1.05v2.65h-12.65v-2.65zm56.75-30.65q-2.1 0-3.83 0.78-1.72 0.77-2.82 2.32-1.4 1.95-2.3 4.95t-0.9 6.65q0 3.55 0.75 6.65t2.1 5.2q1.2 1.85 3.1 2.7t4.4 0.85q8.6 0 10.05-8.45h3.75q-2.35 12.15-14.7 12.15-6.9 0-11-4-2.45-2.4-3.75-6.05t-1.3-8.1q0-5.05 1.65-9.15t4.65-6.55q3.8-3.15 10.05-3.15 3.1 0 5.05 0.8t3.85 2.85l1-3.15h3.75v11.55h-4.05q-0.7-4.4-3.15-6.63-2.45-2.22-6.35-2.22zm26.09 1 7.8 14.6 7.95-14.6-4.05-1.05v-2.65h12.35v2.65l-4.1 1.05-9.95 18.2v10.4l4.7 1.05v2.65h-15.4v-2.65l4.7-1.05v-9.6l-10.45-19-4.15-1.05v-2.65h14.8v2.65l-4.2 1.05z" fill="#191917" data-fill-palette-color="primary"/>
</svg>
</g>
</svg>
<g transform="translate(130.28 28.108)">
<svg width="134.96" height="14.053" viewBox="0 0 134.96484003341723 14.053003960948397">
<g>
<svg width="134.96" height="14.053" data-palette-color="#000000" viewBox="2.25 -35 385.55999755859375 40.150001525878906">
<path class="undefined-text-1" d="m5.9-35 10.8 20.45 10.35-20.45h3.5l-12.25 23.25v11.75h-3.15v-11.8l-12.9-23.2h3.65zm24.8 28.6q-0.9-2.4-0.9-5.6 0-6.15 3.45-9.68 3.45-3.52 8.65-3.52 8.15 0 10.7 6.6 0.95 2.4 0.95 5.6 0 6.15-3.45 9.67-3.45 3.53-8.65 3.53-8.15 0-10.75-6.6zm2.35-5.95q0 4.6 2.37 7.12 2.38 2.53 6.13 2.53t6.25-2.68q2.5-2.67 2.5-7.27t-2.35-7.13q-2.35-2.52-6.13-2.52-3.77 0-6.27 2.67-2.5 2.68-2.5 7.28zm30.69 9.15q1.1 0.4 3.51 0.4 2.39 0 6.19-1.95v-20.25l3.25-0.25v25.25h-3.25v-2.7q-3.69 2.85-7.55 2.85-4.8 0-6.94-2.85-1.11-1.4-1.11-3.9v-18.4l3.25-0.25v17.8q0 3.1 2.65 4.25zm46.7 3.2h-3.15v-32h-9.9l0.25-3h22.65l-0.25 3h-9.6v32zm28-24.5-1.3 3q-0.8-0.45-1.7-0.45t-1 0.05q-1.9 0-3.83 1.37-1.92 1.38-3.27 3.08v17.45h-3.25v-25l3.25-0.25v5.6q1.85-2.35 3.15-3.3 2.4-1.8 4.6-1.9 0.3-0.05 1.1-0.05t2.25 0.4zm8.9 21.3q1.1 0.4 3.5 0.4t6.19-1.95v-20.25l3.25-0.25v25.25h-3.25v-2.7q-3.69 2.85-7.54 2.85-4.8 0-6.96-2.85-1.09-1.4-1.09-3.9v-18.4l3.25-0.25v17.8q0 3.1 2.65 4.25zm34.19-21.3-0.8 2.8q-1.8-0.6-4.9-0.6t-4.8 1.1-1.7 2.72q0 1.63 1 2.38t2.5 1.27q1.5 0.53 3.28 1.03 1.77 0.5 3.27 1.3 3.5 1.8 3.5 5.35t-2.42 5.45q-2.43 1.9-7.08 1.9-2.35 0-4.52-0.48-2.18-0.47-3.33-1.32l1.1-2.65q1.15 1 4.65 1.45 1.1 0.15 2.25 0.15 2.6 0 4.35-1.08 1.75-1.07 1.75-3.27 0-1.5-1-2.35t-2.5-1.43q-1.5-0.57-3.27-1.02-1.78-0.45-3.28-1.18-1.5-0.72-2.5-1.9-1-1.17-1-3.17 0-3.25 2.5-5.2t6.7-1.95q1.05 0 2.15 0.12 1.1 0.13 2 0.23l2.1 0.35zm16.1 20.9 0.6 2.7q-0.9 0.9-3.25 0.9-3.3 0-4.45-1.7-1.95-1.85-1.95-5v-15.4h-2.8l0.45-2.9h2.35v-4.95l3.25-0.3v5.25h5.8v2.9h-5.8v16.2q0 2.9 3 2.9 1.3 0 2.8-0.6zm4.4 0.35t2.7 0.05q0 2.7-1.2 7.5l-0.2 0.85-2.3-0.1q0-0.05 0.5-3.03 0.5-2.97 0.5-4.02t0-1.25zm42.84-31.75 7.8 30.1 8.3-30.1h3.25l-10.25 35h-3.05l-7.55-29.8-8.25 29.8h-3.1l-8.95-35h3.15l7.6 29.95 8.25-29.95h2.8zm22.25 22.7v0.8q0 8.8 8.4 8.8 3.55 0 6.5-0.95 0.75-0.25 1.05-0.4l0.75 2.65q-1.75 1.05-6.35 1.5-1.3 0.1-2.75 0.1-4.2 0-7-2.1-3.85-2.85-3.85-9.5t3.47-10.23q3.48-3.57 8.43-3.57t7.45 3.2q1.9 2.55 1.9 6.75 0 1-0.1 2.1h-17.85q-0.05 0.4-0.05 0.85zm8.85-9.8q-3.1 0-5.3 1.87-2.2 1.88-3.05 4.83h14.55q-0.25-5.55-4.3-6.45-0.9-0.25-1.9-0.25zm45.69 5.7-0.25-5.25q-2.05-0.65-4.2-0.65-4.35 0-6.97 2.8-2.63 2.8-2.63 7.9 0 8.9 8.25 8.9 3.3 0 6.8-1.1 0.7-0.2 0.85-0.3l0.8 2.7q-1.75 1.05-6.35 1.5-1.3 0.1-2.75 0.1-4.25 0-7-2.1-3.85-2.9-3.85-9.55t3.58-10.23q3.57-3.57 9.22-3.57 1.8 0 3.83 0.47 2.02 0.48 3.12 1.48v6.55l-2.45 0.35zm7.85-3.5-0.9-2.4q5.45-2.7 9.55-2.85 3.25 0 5.03 0.82 1.77 0.83 2.87 2.3 1.1 1.48 1.1 4.13v17.9h-3.25v-1.9q-6.85 2.1-8.8 2.1-0.1 0-0.15 0-4.5 0-6.15-2.75-0.6-1-0.67-1.95-0.08-0.95-0.08-1.6 0-1.8 1.4-3.23 1.4-1.42 3.35-1.92 3.3-0.85 11.1-1.5v-4.05q0-5.45-5.7-5.45-4 0-8.7 2.35zm1.6 14.2q0 3.6 4.95 3.6 3.95 0 7.85-1.7v-7.15q-7.8 1.1-9.65 1.7-3.15 1-3.15 3.55zm35.4-18.8-1.3 3q-0.8-0.45-1.7-0.45t-1 0.05q-1.9 0-3.83 1.37-1.92 1.38-3.27 3.08v17.45h-3.25v-25l3.25-0.25v5.6q1.85-2.35 3.15-3.3 2.4-1.8 4.6-1.9 0.3-0.05 1.1-0.05t2.25 0.4zm3.3 12.2v0.8q0 8.8 8.4 8.8 3.55 0 6.5-0.95 0.75-0.25 1.05-0.4l0.75 2.65q-1.75 1.05-6.35 1.5-1.3 0.1-2.75 0.1-4.2 0-7-2.1-3.85-2.85-3.85-9.5t3.47-10.23q3.48-3.57 8.43-3.57t7.45 3.2q1.9 2.55 1.9 6.75 0 1-0.1 2.1h-17.85q-0.05 0.4-0.05 0.85zm8.85-9.8q-3.1 0-5.3 1.87-2.2 1.88-3.05 4.83h14.55q-0.25-5.55-4.3-6.45-0.9-0.25-1.9-0.25z" fill="#211f1f" data-fill-palette-color="secondary"/>
</svg>
</g>
</svg>
</g>
</svg>
</svg>
</g>
<svg width="98.553" height="98.553" viewBox="0 0 98.55330799419237 98.55330799419237">
<svg/>
<svg width="98.553" height="98.553" viewBox="0 0 98.55330799419237 98.55330799419237">
<g fill="#c04f4f" stroke="transparent">
<path d="m0 49.277c0-27.215 22.062-49.277 49.277-49.277s49.277 22.062 49.276 49.277c0 27.215-22.062 49.277-49.276 49.276-27.215 0-49.277-22.062-49.277-49.276zm49.277 47.226c26.082 0 47.226-21.144 47.226-47.226s-21.144-47.226-47.226-47.226-47.226 21.144-47.226 47.226 21.144 47.226 47.226 47.226z" data-fill-palette-color="accent"/>
<ellipse cx="49.277" cy="49.277" rx="48.784" ry="48.784" stroke-width="0" data-fill-palette-color="accent"/>
</g>
<g transform="translate(27.256 24.525)">
<svg width="44.041" height="49.504" viewBox="0 0 44.04137395413455 49.503719068229316">
<svg class="icon-x-0" width="44.041" height="49.504" data-fill-palette-color="quaternary" viewBox="34.00000762939453 19.900012969970703 231.39999389648438 260.0999755859375" xml:space="preserve" xmlns="http://www.w3.org/2000/svg"><path d="M265.4 160.7c0-10.7-7.4-19.5-17.4-21.9v-4.4c0-10.1-6.7-18.6-16.1-21 0-0.9 0.2-1.8 0.2-2.8 0-10.1-1.7-20.2-5.2-30.1 0-0.2-1.5-4.1-1.5-4.2-2.9-7.1-6.7-13.9-11.4-20.1-17.3-23-43.7-36.3-72.4-36.3-28.6 0.1-55.7 13.8-72.8 36.8-4.5 6.1-8.2 12.7-11.1 19.7-0.3 0.4-0.6 0.8-0.7 1.2-4 10.4-6.1 21.4-6.1 32.9 0 0.9-0.2 1.9-0.1 2.8-9.5 2.3-16.8 10.9-16.8 21.1V187c0 12 10 21.7 22 21.7S78 199 78 187v-52.7c0-10.3-7.3-19-17-21.2 0-0.9-0.1-1.8-0.1-2.7 0-8.6 1.3-16.9 3.9-24.8l18.8 6.9c0.6 0.2 1.2 0.3 1.7 0.3 2 0 3.9-1.2 4.7-3.3 8.3-22.3 29.8-37.2 53.5-37.2s45.2 14.9 53.5 37.2c1 2.6 3.8 3.9 6.4 2.9l15.2-5.6c2.4 7.8 3.7 15.8 3.7 23.7 0 0.8 0 1.7-0.1 2.6-9.8 2.1-17.2 10.8-17.2 21.2V187c0 12 9.5 21.7 21.5 21.7S248 199 248 187v-2.4c1 9.2 1 25.4-9 39.5-11.2 16-31.6 25.7-61 28.8-2.7-8.4-10.5-14.5-19.8-14.5-11.5 0-20.8 9.3-20.8 20.8s9.3 20.8 20.8 20.8c10.2 0 18.7-7.4 20.5-17.1 32.7-3.4 55.8-14.5 68.8-33.1 14.1-20.3 11.6-43.1 10-51.8 4.9-4.2 7.9-10.3 7.9-17.3zM68 134.4V187c0 6.5-5.5 11.7-12 11.7s-12-5.3-12-11.7v-52.7c0-5.9 4.6-10.8 10.3-11.6 0.5 0.1 1.1 0.2 1.6 0.2s1.2-0.1 1.7-0.3c5.8 0.8 10.4 5.8 10.4 11.8z m136.4-52.9c-10.8-23.5-34.7-39.1-60.9-39.1-26.2 0-50.1 15.5-61 39.1l-13.9-5.1c2.3-4.8 5-9.5 8.2-13.8C92 42.2 116.2 30 141.6 30c25.6 0 49.1 11.8 64.4 32.3 3.6 4.8 6.6 9.9 9 15.3l-10.6 3.9zM238 187c0 6.5-5 11.7-11.5 11.7S215 193.5 215 187v-52.7c0-6 4.6-11 10.4-11.6 0.5 0.2 1 0.3 1.6 0.3 0.5 0 0.7-0.1 1.2-0.2 5.7 0.8 9.8 5.7 9.8 11.6V187z m-79.7 83c-6 0-10.8-4.8-10.8-10.8s4.8-10.8 10.8-10.8 10.8 4.8 10.8 10.8-4.8 10.8-10.8 10.8z m89.7-97.9v-22.7c5 2 7.1 6.3 7.1 11.4s-2.1 9.2-7.1 11.3z" fill="#f6f6fc" data-fill-palette-color="quaternary"/></svg>
</svg>
</g>
</svg>
</svg>
</svg>
</svg>
<rect width="395.52" height="77.217" fill="none" visibility="hidden"/>
</g>
</svg>
</g>
</svg>
